event_marathon_board_position_type,position,add_story_number,priority,image_thumbnail_asset_path
1,3,0,0,}m$
1,9,0,4,Lca
1,9,0,9,16O
2,2,1,1,bR9
2,7,2,2,Q`F
2,5,3,3,00*
2,4,4,5,=[b
2,3,5,6,>P*
2,1,6,7,cYk
2,6,7,8,8zj
